{
    "AD": "AD[0-9]{3}",
    "AM": "(37)?[0-9]{4}",
    "AR": "([A-HJ-NP-Z])?[0-9]{4}([A-Z]{3})?",
    "AS": "96799",
    "AT": "[0-9]{4}",
    "AU": "[0-9]{4}",
    "AX": "22[0-9]{3}",
    "AZ": "[0-9]{4}",
    "BA": "[0-9]{5}",
    "BB": "(BB[0-9]{5})?",
    "BD": "[0-9]{4}",
    "BE": "[0-9]{4}",
    "BG": "[0-9]{4}",
    "BH": "((1[0-2]|[2-9])[0-9]{2})?",
    "BM": "[A-Z]{2}[ ]?[A-Z0-9]{2}",
    "BN": "[A-Z]{2}[ ]?[0-9]{4}",
    "BR": "[0-9]{5}[\\-]?[0-9]{3}",
    "BY": "[0-9]{6}",
    "CA": "[ABCEGHJKLMNPRSTVXY][0-9][ABCEGHJ-NPRSTV-Z][ ]?[0-9][ABCEGHJ-NPRSTV-Z][0-9]",
    "CC": "6799",
    "CH": "[0-9]{4}",
    "CK": "[0-9]{4}",
    "CL": "[0-9]{7}",
    "CN": "[0-9]{6}",
    "CR": "[0-9]{4,5}|[0-9]{3}-[0-9]{4}",
    "CS": "[0-9]{5}",
    "CV": "[0-9]{4}",
    "CX": "6798",
    "CY": "[0-9]{4}",
    "CZ": "[0-9]{3}[ ]?[0-9]{2}",
    "DE": "[0-9]{5}",
    "DK": "[0-9]{4}",
    "DO": "[0-9]{5}",
    "DZ": "[0-9]{5}",
    "EC": "([A-Z][0-9]{4}[A-Z]|(?:[A-Z]{2})?[0-9]{6})?",
    "EE": "[0-9]{5}",
    "EG": "[0-9]{5}",
    "ES": "[0-9]{5}",
    "ET": "[0-9]{4}",
    "FI": "[0-9]{5}",
    "FK": "FIQQ 1ZZ",
    "FM": "(9694[1-4])([ \\-][0-9]{4})?",
    "FO": "[0-9]{3}",
    "FR": "(0[1-9]|[1-9][0-9])[ ]?[0-9]{3}",
    "GB": "GIR[ ]?0AA|(([A-Z]{1,2}[0-9][A-Z]|[A-Z]{1,2}[0-9]{1,2})[ ]?[0-9][ABD-HJLN-UW-Z]{2})|BFPO[ ]?[0-9]{1,4}",
    "GE": "[0-9]{4}",
    "GF": "9[78]3[0-9]{2}",
    "GG": "GY[0-9][[0-9]A-Z]?[ ]?[0-9][ABD-HJLN-UW-Z]{2}",
    "GI": "GX11 1AA",
    "GL": "39[0-9]{2}",
    "GN": "[0-9]{3}",
    "GP": "9[78][01][0-9]{2}",
    "GR": "[0-9]{3}[ ]?[0-9]{2}",
    "GS": "SIQQ 1ZZ",
    "GT": "[0-9]{5}",
    "GU": "969[123][0-9]([ \\-][0-9]{4})?",
    "GW": "[0-9]{4}",
    "HM": "[0-9]{4}",
    "HN": "(?:[0-9]{5})?",
    "HR": "[0-9]{5}",
    "HT": "[0-9]{4}",
    "HU": "[0-9]{4}",
    "ID": "[0-9]{5}",
    "IE": "[ACDEFHKNPRTVWXY][0-9]{2}[ ]?[A-Z0-9]{4}",
    "IL": "[0-9]{5}",
    "IM": "IM[0-9][[0-9]A-Z]?[ ]?[0-9][ABD-HJLN-UW-Z]{2}",
    "IN": "[0-9]{6}",
    "IO": "BBND 1ZZ",
    "IQ": "[0-9]{5}",
    "IS": "[0-9]{3}",
    "IT": "[0-9]{5}",
    "JE": "JE[0-9][[0-9]A-Z]?[ ]?[0-9][ABD-HJLN-UW-Z]{2}",
    "JO": "[0-9]{5}",
    "JP": "[0-9]{3}-[0-9]{4}",
    "KE": "[0-9]{5}",
    "KG": "[0-9]{6}",
    "KH": "[0-9]{5}",
    "KR": "[0-9]{3}[\\-][0-9]{3}",
    "KY": "(KY1|KY2|KY3)-[0-9]{4}",
    "KW": "[0-9]{5}",
    "KZ": "[0-9]{6}",
    "LA": "[0-9]{5}",
    "LB": "([0-9]{4}([ ]?[0-9]{4})?)?",
    "LI": "(948[5-9])|(949[0-7])",
    "LK": "[0-9]{5}",
    "LR": "[0-9]{4}",
    "LS": "[0-9]{3}",
    "LT": "[0-9]{5}",
    "LU": "[0-9]{4}",
    "LV": "[0-9]{4}",
    "MA": "[0-9]{5}",
    "MC": "980[0-9]{2}",
    "MD": "[0-9]{4}",
    "ME": "8[0-9]{4}",
    "MG": "[0-9]{3}",
    "MH": "969[67][0-9]([ \\-][0-9]{4})?",
    "MK": "[0-9]{4}",
    "MN": "[0-9]{6}",
    "MP": "9695[012]([ \\-][0-9]{4})?",
    "MQ": "9[78]2[0-9]{2}",
    "MT": "[A-Z]{3}[ ]?[0-9]{2,4}",
    "MU": "([0-9]{3}[A-Z]{2}[0-9]{3})?",
    "MV": "[0-9]{5}",
    "MX": "[0-9]{5}",
    "MY": "[0-9]{5}",
    "NC": "988[0-9]{2}",
    "NE": "[0-9]{4}",
    "NF": "2899",
    "NG": "([0-9]{6})?",
    "NI": "(([0-9]{4}-)?[0-9]{3}-[0-9]{3}(-[0-9]{1})?)?",
    "NL": "[1-9][0-9]{3}[ ]?([A-RT-Z][A-Z]|S[BCE-RT-Z])",
    "NO": "[0-9]{4}",
    "NP": "[0-9]{5}",
    "NZ": "[0-9]{4}",
    "OM": "(PC )?[0-9]{3}",
    "PF": "987[0-9]{2}",
    "PG": "[0-9]{3}",
    "PH": "[0-9]{4}",
    "PK": "[0-9]{5}",
    "PL": "[0-9]{2}-[0-9]{3}",
    "PM": "9[78]5[0-9]{2}",
    "PN": "PCRN 1ZZ",
    "PR": "00[679][0-9]{2}([ \\-][0-9]{4})?",
    "PT": "[0-9]{4}([\\-][0-9]{3})?",
    "PW": "96940",
    "PY": "[0-9]{4}",
    "RE": "9[78]4[0-9]{2}",
    "RO": "[0-9]{6}",
    "RS": "[0-9]{6}",
    "RU": "[0-9]{6}",
    "SA": "[0-9]{5}",
    "SE": "[0-9]{3}[ ]?[0-9]{2}",
    "SG": "[0-9]{6}",
    "SH": "(ASCN|TDCU|STHL) 1ZZ",
    "SI": "[0-9]{4}",
    "SJ": "[0-9]{4}",
    "SK": "[0-9]{3}[ ]?[0-9]{2}",
    "SM": "4789[0-9]",
    "SN": "[0-9]{5}",
    "SO": "[0-9]{5}",
    "SZ": "[HLMS][0-9]{3}",
    "TC": "TKCA 1ZZ",
    "TH": "[0-9]{5}",
    "TJ": "[0-9]{6}",
    "TM": "[0-9]{6}",
    "TN": "[0-9]{4}",
    "TR": "[0-9]{5}",
    "TW": "[0-9]{3}([0-9]{2})?",
    "UA": "(0[1-9]|[1-9][0-9])[0-9]{3}",
    "US": "[0-9]{5}([ \\-][0-9]{4})?",
    "UY": "[0-9]{5}",
    "UZ": "[0-9]{6}",
    "VA": "00120",
    "VE": "[0-9]{4}",
    "VG": "VG[0-9]{4}",
    "VI": "008(([0-4][0-9])|(5[01]))([ \\-][0-9]{4})?",
    "WF": "986[0-9]{2}",
    "XK": "[0-9]{5}",
    "YT": "976[0-9]{2}",
    "YU": "[0-9]{5}",
    "ZA": "[0-9]{4}",
    "ZM": "[0-9]{5}"
}
